****calcul thermal_transient

  ***init_dof_value TP uniform 1000.

  ***mesh
    **file cube.geof

  ***resolution
    **sequence 1
      *ratio
       0.0001
      *time
       1000.
      *increment
       50
      *iteration
       10
      *algorithm p1p2p3


 ***linear_solver dd_mpfeti
  %**precond           lumped
% lumped is more aggressive, if convergence get in trouble, switch to full
   **precond           full
  **scaling           stiffness
% we don't need advanced projectors in this computation
  **projector_schur   none
  **projector_scaling none
  **iterative_solver  ddcgb_adaptive_global
   *output_every_iter 1
   *precision         1.e-8
% precision is set to 1.e-8 to enforce displacement jump of about 1.e-6, but you can test other values (1e-7) such as to
   *collinearity_treatment chol_rank_revealing
   *adaptivity_threshold 0.01
   *max_iteration 1000
   *ortho_type        mgskss
  **local_solver advanced_detection
   *kernel_size_detection svd_threshold
   *partitioner metis
   *check_and_pop
   *local_solver mumps no_option



    ***bc
     **radiation
  x0   3.9683e-8 1.  ptab    %(5.669E-8*0.7)
     **convection_heat_flux
  x1    h     1000.	Te     1.    ptab


  ***material
      *file mat.mat

  ***table
   **name ptab

    *time
      0.  200. 400. 600. 800. 1000.

    *value
      1000.  100. 1000. 100. 1000. 100.

***output
**output_first

****return






