****calcul
 ***mesh
  **file cube.geof


 ***resolution newton
  **cycles 1
   *ratio 0.01
   *time       2.
   *increment  5
   *algorithm p1p2p3


***linear_solver mumps

***bc
**impose_nodal_dof
x0     U1 0.0
x0y0   U2 0.0
x0y1z1 U3 0.0
**pressure
x1 file pressure.node pressure
**centrifugal
ALL_ELEMENT (3.5 -20 1.5) d3 1.e2 rotation

***parameter
**file temperature
*node
*rec_size 1981
*cycle_conversion 0. 20. 2.
function 0.0+cycle*2.; file temperature1.node 1
function 1.0+cycle*2.; file temperature2.node 1
function 2.0+cycle*2.; file temperature1.node 1

***table
  **cycle pressure 0. 2.
   *time
   0.  0.1  2.
   *value
   0.  -300.0  -200.
**cycle rotation 0. 2.
   *time
   0.  1.  2.
   *value
   0. 10. 5.


 ***output
  **output_first
  **component eto11 eto22 eto33 eto12 eto23 eto31 sig11 sig22 sig33 sig12 sig23 sig31 evrcum

 ***material
   *file mat

****return
