****mesher
***mesh square.geof
**mesh_lin_rectangle
*ncutx 25
*ncuty 25
*sizex 1.
*sizey 1.
%**bset x0
%*use_nset x0
%**bset x1
%*use_nset x1
%**bset y0
%*use_nset y0
%**bset y1
%*use_nset y1
**bset ALLBOUNDARY
*use_nset x0 y1 x1 y0
****return