****calcul
 ***mesh
  **file cube.geo


 ***resolution newton
  **cycles 1
   *ratio 0.0001
   *time       2.
   *increment  10
   *algorithm p1p2p3


***linear_solver mumps

***bc
**impose_nodal_dof
x0     U1 0.0
x0y0   U2 0.0
x0y1z1 U3 0.0
**pressure
x1 file pressure.node pressure
**centrifugal
ALL_ELEMENT (3.5 -20 1.5) d3 1.22e4 rotation

***parameter
**file temperature
*node
*rec_size 1981
*cycle_conversion 0. 20. 2.
function 0.0+cycle*2.; file temperature1.node 1
function 1.0+cycle*2.; file temperature2.node 1
function 2.0+cycle*2.; file temperature1.node 1

***table
  **cycle pressure 0. 2.
   *time
   0.  1.  2.
   *value
   0.  -400.0  0.
**cycle rotation 0. 2.
   *time
   0.  1.  2.
   *value
   0. 1. 0.


 ***output
  **output_first
 ***material
   *file evpcry
   *integration runge_kutta 1.e-4 dtmin 1.e-12
   *rotation
    x1 0.891081 -0.035573 -0.452448
    x2 0.15712   0.959455  0.234006

****return
